<svg width="387" height="451" xmlns="http://www.w3.org/2000/svg">
 <style type="text/css">.st0{fill-rule:evenodd;clip-rule:evenodd;fill:#223B7E;}
	.st1{fill-rule:evenodd;clip-rule:evenodd;}</style>

 <g>
  <title>background</title>
  <rect fill="none" id="canvas_background" height="453" width="389" y="-1" x="-1"/>
 </g>
 <g>
  <title>Layer 1</title>
  <path id="svg_1" d="m194.94,0c-55.19,31.82 -110.4,63.65 -165.6,95.47c6,14.64 12,29.28 18,43.92c-3.36,2.69 -6.72,5.38 -10.08,8.06c-6.24,-15.17 -12.48,-30.34 -18.72,-45.5c-4.37,2.5 -8.74,4.99 -13.1,7.49c-1.29,0.76 -3.44,1.31 -4.18,2.59c-0.05,23.09 -0.1,46.18 -0.14,69.26c73.24,-55.43 146.5,-110.89 219.74,-166.32c0,-0.05 0,-0.1 0,-0.14c-8.64,-4.94 -17.28,-9.89 -25.92,-14.83z" class="st0"/>
  <path id="svg_2" d="m231.8,21.46c-59.71,43.63 -119.43,87.27 -179.14,130.9c17.37,42.04 34.75,84.1 52.13,126.14c36.86,-32.25 73.73,-64.52 110.59,-96.77c0.41,1.47 3.32,7.57 2.88,8.21c-36.81,32.01 -73.64,64.04 -110.45,96.05c13.53,32.88 27.07,65.76 40.61,98.64c0.29,-0.29 0.58,-0.58 0.86,-0.86c3.07,-2.78 6.14,-5.57 9.22,-8.35c8.16,-7.54 16.32,-15.07 24.48,-22.61c24.48,-22.61 48.96,-45.22 73.44,-67.82c0.1,0.05 0.19,0.1 0.29,0.14c0.86,4.06 3.89,5.69 1.44,8.93c-11.9,10.99 -23.81,21.99 -35.71,32.98c-21.93,20.16 -43.87,40.32 -65.81,60.48c-8.87,7.16 -16.35,16.29 -25.63,23.04c0.05,0.1 0.1,0.19 0.14,0.29c6.67,3.79 13.34,7.58 20.02,11.38c-1.05,-2.64 -7,-15 -6.48,-16.56c3.17,-2.4 6.34,-4.8 9.5,-7.2c4.56,11.18 9.12,22.37 13.68,33.55c9.07,5.18 18.14,10.37 27.22,15.55c36.19,-21.07 72.39,-42.15 108.58,-63.22c-28.22,-68.59 -56.45,-137.19 -84.67,-205.78c37.82,-33.12 75.65,-66.24 113.47,-99.36c-0.1,0 -0.19,0 -0.29,0c-23.57,-13.58 -47.14,-27.17 -70.7,-40.75c-6.91,-3.98 -13.82,-7.97 -20.74,-11.95c-2.62,-1.58 -5.76,-4.36 -8.93,-5.05z" class="st0"/>
  <path id="svg_3" d="m340.52,83.95c-35.8,31.1 -71.62,62.21 -107.42,93.31c13.01,31.1 26.02,62.21 39.02,93.31c38.78,-35.76 77.57,-71.52 116.35,-107.28c0,-17.28 0,-34.56 0,-51.84c-15.98,-9.16 -31.96,-18.33 -47.95,-27.5z" class="st0"/>
  <path id="svg_4" d="m42.16,159.84c-13.68,10.03 -27.36,20.07 -41.04,30.1c0.05,34.51 0.1,69.03 0.14,103.54c0,9.93 0,19.87 0,29.81c0,3.13 -0.75,10.22 0.29,12.53c40.94,23.66 81.89,47.33 122.83,70.99c4.94,-4.51 9.89,-9.02 14.83,-13.54c-23.71,-57.12 -47.42,-114.25 -71.13,-171.37c-6.29,-15.17 -12.58,-30.34 -18.86,-45.5c-1.1,-2.58 -5.69,-15.65 -7.06,-16.56z" class="st0"/>
  <path id="svg_5" d="m388.33,173.66c-37.68,34.84 -75.36,69.7 -113.04,104.54c13.68,32.92 27.36,65.86 41.04,98.78c24,-13.97 48,-27.94 72,-41.9c0,-53.79 0,-107.61 0,-161.42z" class="st0"/>
 </g>
</svg>